Select Organization — argentum_select_organization • Argentum
…
interactive_select
Logical; whether to run in interactive mode. Defaults to interactive()

    Value

    A data frame containing the selected organization's information, or NULL if no selection is made

    Examples

# List available organizations
orgs <- argentum_list_organizations()
print(orgs)
#> # A tibble: 130 × 3
#>    Name                                                          WMS_URL WFS_URL
#>    <chr>                                                         <chr>   <chr>  
#>  1 "Jefatura de Gabinete de Ministros - Comisión Nacional de Ac… https:… https:…
#>  2 "Jefatura de Gabinete de Ministros - Comisión Nacional de Ac… https:… https:…
#>  3 "Jefatura de Gabinete de Ministros - Comisión Nacional de Ac… https:… https:…
#>  4 "Jefatura de Gabinete de Ministros - Subsecretaría de Teleco… https:… https:…
#>  5 "Ministerio de Defensa - Instituto Geográfico Nacional (IGN)" http:/… https:…
#>  6 "Ministerio de Defensa - Ministerio de Defensa"               https:… https:…
#>  7 "Ministerio de Defensa - Servicio de Hhidrografía Naval (SHN… http:/… http:/…
#>  8 "Ministerio de Economía - Instituto Nacional de Estadística … https:… https:…
#>  9 "Ministerio de Economía - Instituto Nacional de Tecnología A… http:/… http:/…
#> 10 "Ministerio de Economía - Secretaría de Bioeconomía (Agricul… https:… https:…
#> # ℹ 120 more rows
…
